{
  "response": [
    {
      "datetime": 1627449816,
      "filename": "lineage-18.1-20210728-UNOFFICIAL-ginkgo.zip",
      "id": "c04861868ac0b4957eac9811755f6e50",
      "romtype": "unofficial",
      "size": 855817197,
      "url": "https://transfer.sh/get/18uVpfx/lineage-18.1-20210728-UNOFFICIAL-ginkgo.zip",
      "version": "18.1"
    }
  ]
}

